Statistics and Text Mining for Oil and Gas Papers from OnePetro Metadata • petro.One
…
Note also that we are adding another parameter rows to get 1000 rows instead of 10, 50 or 100 as the browser allows.

# specify document type = "conference-paper", rows = 1000

my_url <- make_search_url(query = "neural network", 
                          how = "all",
                          dc_type = "conference-paper",
                          rows = 1000)

get_papers_count(my_url)
#> [1] 2770
df <- onepetro_page_to_dataframe(my_url)
df
#> # A tibble: 1,000 x 6
#>                                                         title_data
#>                                                              <chr>
#>  1                             Deconvolution Using Neural Networks
#>  2                                         Neural Networks And AVO
#>  3                        Neural Network Stacking Velocity Picking
#>  4                Neural networks approach to spectral enhancement
#>  5        Dynamic Neural Network Calibration of Quartz Transducers
#>  6     Seismic Principal Components Analysis Using Neural Networks
#>  7           Estimation of Welding Distortion Using Neural Network
#>  8 Minimum-variance Deconvolution Using Artificial Neural Networks
#>  9                Neural Networks And Paper Seismic Interpretation
#> 10                       First Break Picking Using Neural Networks
#> # ... with 990 more rows, and 5 more variables: paper_id <chr>,
#> #   source <chr>, type <chr>, year <int>, author1_data <chr>
…
In this other example we are requesting for journal-paper type of papers. We are also specifying to get the maximum number of rows that OnePetro permits: 1000.

# specify document type = "journal-paper", rows = 1000

my_url <- make_search_url(query = "neural network", 
                          how = "all",
                          dc_type = "journal-paper",
                          rows = 1000)

get_papers_count(my_url)
#> [1] 307
df <- onepetro_page_to_dataframe(my_url)
df
#> # A tibble: 307 x 6
#>                                                                     title_data
#>                                                                          <chr>
#>  1                   Implicit Approximation of Neural Network and Applications
#>  2                                    Drill-Bit Diagnosis With Neural Networks
#>  3                Artificial Neural Networks Identify Restimulation Candidates
#>  4             Application of Artificial Neural Network to Pump Card Diagnosis
#>  5        Application of Artificial Neural Networks to Downhole Fluid Analysis
#>  6                Neural Network Approach Predicts U.S. Natural Gas Production
#>  7           Pseudodensity Log Generation by Use of Artificial Neural Networks
#>  8                 Neural Networks for Predictive Control of Drilling Dynamics
#>  9 Characterize Submarine Channel Reservoirs: A Neural- Network-Based Approach
#> 10                      Neural Network: What It Can Do for Petroleum Engineers
#> # ... with 297 more rows, and 5 more variables: paper_id <chr>,
#> #   source <chr>, type <chr>, year <int>, author1_data <chr>
…
