…
And these are the terms that repeat more freqently:

``` r
term_frequency(df)
#> # A tibble: 27 x 2
#>    word              freq
#>    <chr>            <int>
#>  1 neural              10
#>  2 networks             9
#>  3 identification       2
#>  4 petroleum            2
#>  5 seismic              2
#>  6 -order               1
#>  7 artificial           1
#>  8 attribute            1
#>  9 calibration          1
#> 10 characterization     1
#> # ... with 17 more rows
```
…
``` r
library(petro.One)

my_url <- make_search_url(query = "well test", 
                          dc_type = "conference-paper",
                          from_year = 2017, 
                          to_year   = 2018, 
                          how = "all")

get_papers_count(my_url)
#> [1] 783
df <- read_multidoc(my_url)

(tf <- term_frequency(df))
#> # A tibble: 2,309 x 2
#>    word        freq
#>    <chr>      <int>
#>  1 reservoir    156
#>  2 well         147
#>  3 field        119
#>  4 gas          115
#>  5 production    98
#>  6 analysis      85
#>  7 oil           85
#>  8 reservoirs    79
#>  9 pressure      75
#> 10 data          67
#> # ... with 2,299 more rows
…
``` r
library(petro.One)
library(tidyverse)

# provide two different set of keywords to combine as vectors
major   <- c("artificial intelligence")

paper_results <- run_papers_search(major, 
                                   get_papers = TRUE,       # return with papers
                                   verbose = FALSE,         # show progress
                                   len_keywords = 4,        # naming the data file
                                   allow_duplicates = FALSE) # by paper title and id

(papers <- paper_results$papers)
#> # A tibble: 2,592 x 7
#>    book_title       paper_id   dc_type authors        year source keyword 
#>    <fct>            <fct>      <fct>   <chr>         <int> <fct>  <chr>   
#>  1 Production Moni~ SPE-14959~ confer~ Olivares Vel~  2012 SPE    'artifi~
#>  2 Estimating Dewp~ SPE-16091~ confer~ Alarfaj, Mal~  2012 SPE    'artifi~
#>  3 Cross-Industry ~ SPE-14387~ confer~ Piovesan, Ca~  2011 SPE    'artifi~
#>  4 Artificial Inte~ SPE-19155~ confer~ Gupta, Supri~  2018 SPE    'artifi~
#>  5 Industrial Appl~ PETSOC-95~ confer~ Cercone, N.,~  1995 PETSOC 'artifi~
#>  6 Application of ~ SPE-15908~ general Gangopadhyay~  1986 SPE    'artifi~
#>  7 Well Log Data I~ SPWLA-198~ confer~ Wu, X., Inst~  1986 SPWLA  'artifi~
#>  8 Multilateral We~ SPE-18350~ confer~ Al-Mashhad, ~  2016 SPE    'artifi~
#>  9 Formation Dip D~ SPWLA-198~ journa~ Kerzner, Mar~  1983 SPWLA  'artifi~
#> 10 Profiling Downh~ SPE-17342~ confer~ AlAjmi, Moha~  2015 SPE    'artifi~
#> # ... with 2,582 more rows
```
…
``` r
tf <- term_frequency(papers)
tf
#> # A tibble: 4,328 x 2
#>    word         freq
#>    <chr>       <int>
#>  1 data          271
#>  2 reservoir     269
#>  3 artificial    266
#>  4 system        253
#>  5 well          228
#>  6 production    206
#>  7 oil           205
#>  8 drilling      203
#>  9 neural        192
#> 10 application   186
#> # ... with 4,318 more rows
```
…
