Thousands of Papers to Dataframe
…
get_papers_count(my_url_1)

## [1] 3027

page_1 <- read_onepetro(my_url_1)
htm_1 <- "pta-01-conference.html"
xml2::write_html(page_1, file = htm_1)
onepetro_page_to_dataframe(htm_1)

## # A tibble: 1,000 x 6
##                                                         title_data
##                                                              <chr>
##  1                             Pressure Transient Analysis in SAGD
##  2                           Well-head Pressure Transient Analysis
##  3  Pressure Transient Analysis in Multilayered Faulted Reservoirs
##  4  Pressure Transient Analysis of Multifractured Horizontal Wells
##  5 Integrating Pressure Transient Analysis in Hydraulic Fracturing
##  6             Numerical Solutions for Pressure Transient Analysis
##  7                Pressure-Transient Analysis for Perforated Wells
##  8     Automated Pressure Transient Analysis with Smart Technology
##  9        How Wellbore Dynamics Affect Pressure Transient Analysis
## 10         Software Showcase: Pressure Transient Analysis Programs
## # ... with 990 more rows, and 5 more variables: paper_id <chr>,
## #   source <chr>, type <chr>, year <int>, author1_data <chr>

Collect second set of 1000 rows

my_url_2 <- make_search_url(query = "pressure transient analysis", 
                          how = "all", 
                          dc_type = "conference-paper",
                          start = 1000,
                          rows  = 1000)

page_2 <- read_onepetro(my_url_2)
htm_2 <- "pta-02-conference.html"
xml2::write_html(page_2, file = htm_2)
onepetro_page_to_dataframe(htm_2)

## # A tibble: 1,000 x 6
##                                                                     title_data
##                                                                          <chr>
##  1 Storativity Ratio, Matrix/Fracture Permeability Ratio, Fracture Partitionin
##  2 Integration Wireline Formation Testing and Well Testing Evaluation - An Exa
##  3 An Integrated Approach to Designing an Offshore Heavy Oil Well Test - North
##  4  Setting a New Milestone in Carbonate Matrix Stimulation with Coiled Tubing
##  5                             Transient Analysis in Partially Completed Wells
##  6 Performance of Plugless Toe Stages and Non-Isolated Wellbore in Multi-Stage
##  7        Long-Term Hydraulic Fracture Conductivities Under Extreme Conditions
##  8                        Innovative Applications of Downhole Temperature Data
##  9 Real Time Evaluation of Pressure Transients: Advances in Dynamic Reservoir 
## 10 New Approach for Using Surfactants to Enhance Oil Recovery from Naturally F
## # ... with 990 more rows, and 5 more variables: paper_id <chr>,
## #   source <chr>, type <chr>, year <int>, author1_data <chr>

Collect next set of 1000 rows

my_url_3 <- make_search_url(query = "pressure transient analysis", 
                          how = "all", 
                          dc_type = "conference-paper",
                          start = 2000,
                          rows  = 1000)

page_3 <- read_onepetro(my_url_3)
htm_3 <- "pta-03-conference.html"
xml2::write_html(page_3, file = htm_3)
onepetro_page_to_dataframe(htm_3)

## # A tibble: 1,000 x 6
##                                                                     title_data
##                                                                          <chr>
##  1 Integration of Numerical Simulations for Uncertainty Analysis of Transient 
##  2 Implementation of Wireline Formation Testing Configuration for the Evaluati
##  3 Fault and Fracture Corridors - How to Reduce the Structural Uncertainty for
##  4 Analysis of Capillary Pressure Effects on Well Tests in Solution Gas-Drive 
##  5 Type Curves for Predicting Production Performance From Horizontal Wells in 
##  6 Successful Deployments of a New Well-Intervention Methodology in Horizontal
##  7 Inflow Performance Relationships of Horizontal and Multibranched Wells in a
##  8 "Application of Real-time ESP Data Processing and Interpretation in Permian
##  9    Unconventional Performance Metrics Validated Using Eagle Ford Field Data
## 10                        Modelling of Fractured Wells in Reservoir Simulation
## # ... with 990 more rows, and 5 more variables: paper_id <chr>,
## #   source <chr>, type <chr>, year <int>, author1_data <chr>

Collect remaining set

my_url_4 <- make_search_url(query = "pressure transient analysis", 
                          how = "all", 
                          dc_type = "conference-paper",
                          start = 3000,
                          rows  = 100)

page_4 <- read_onepetro(my_url_4)
htm_4 <- "pta-04-conference.html"
xml2::write_html(page_4, file = htm_4)
onepetro_page_to_dataframe(htm_4)

## # A tibble: 27 x 6
##                                                                     title_data
##                                                                          <chr>
##  1              The Role of Knowledge, Tools and Systems for Drilling Analysis
##  2 Evaluating Fissured Formation Geometry from Well Test Data: a Field Example
##  3               Afterflow Measurement and Deconvolution in Well Test Analysis
##  4 A Step by Step Approach to Hydraulic Fracture Treatment Design, Implementat
##  5 Fluid Flow in a Fractured Reservoir Using a Geomechanically-Constrained Fau
##  6 Evaluating Barnett Shale Production Performance-Using an Integrated Approac
##  7 A Semi-Analytic (p/z) Rate-Time Relation for the Analysis and Prediction of
##  8 Reservoir Engineering for Unconventional Reservoirs: What Do We Have to Con
##  9                        After-Closure Analysis of Fracture Calibration Tests
## 10 A Predictive Model for Analyzing Erosional Velocity and Corrosion Effects E
## # ... with 17 more rows, and 5 more variables: paper_id <chr>,
## #   source <chr>, type <chr>, year <int>, author1_data <chr>

Binding tables in one dataframe

p1 <- onepetro_page_to_dataframe(htm_1)
p2 <- onepetro_page_to_dataframe(htm_2)
p3 <- onepetro_page_to_dataframe(htm_3)
p4 <- onepetro_page_to_dataframe(htm_4)

papers <- rbind(p1, p2, p3, p4)
papers

## # A tibble: 3,027 x 6
##                                                         title_data
##                                                              <chr>
##  1                             Pressure Transient Analysis in SAGD
##  2                           Well-head Pressure Transient Analysis
##  3  Pressure Transient Analysis in Multilayered Faulted Reservoirs
##  4  Pressure Transient Analysis of Multifractured Horizontal Wells
##  5 Integrating Pressure Transient Analysis in Hydraulic Fracturing
##  6             Numerical Solutions for Pressure Transient Analysis
##  7                Pressure-Transient Analysis for Perforated Wells
##  8     Automated Pressure Transient Analysis with Smart Technology
##  9        How Wellbore Dynamics Affect Pressure Transient Analysis
## 10         Software Showcase: Pressure Transient Analysis Programs
## # ... with 3,017 more rows, and 5 more variables: paper_id <chr>,
## #   source <chr>, type <chr>, year <int>, author1_data <chr>

Find which papers have the search word in the title

pattern <- "pressure transient analysis"
rows <- grep(pattern = pattern, papers$title_data, ignore.case = TRUE)
papers[rows, ]

## # A tibble: 161 x 6
##                                                                     title_data
##                                                                          <chr>
##  1                                         Pressure Transient Analysis in SAGD
##  2                                       Well-head Pressure Transient Analysis
##  3              Pressure Transient Analysis in Multilayered Faulted Reservoirs
##  4              Pressure Transient Analysis of Multifractured Horizontal Wells
##  5             Integrating Pressure Transient Analysis in Hydraulic Fracturing
##  6                         Numerical Solutions for Pressure Transient Analysis
##  7                 Automated Pressure Transient Analysis with Smart Technology
##  8                    How Wellbore Dynamics Affect Pressure Transient Analysis
##  9                     Software Showcase: Pressure Transient Analysis Programs
## 10 Pressure Transient Analysis as an Element of Permanent Reservoir Monitoring
## # ... with 151 more rows, and 5 more variables: paper_id <chr>,
## #   source <chr>, type <chr>, year <int>, author1_data <chr>
…
