Statistics and Text Mining for Oil and Gas Papers from OnePetro Metadata • petro.One
…
Get papers by document type (dc_type)

We can also get paper by the type of document. In this example we are requesting only “conference-paper” type.

# specify document type = "conference-paper", rows = 1000

my_url <- make_search_url(query = "neural network", 
                          how = "all",
                          dc_type = "conference-paper",
                          rows = 1000)

get_papers_count(my_url)
#> [1] 2706
onepetro_page_to_dataframe(my_url)
#> # A tibble: 1,000 x 6
#>                                                      title_data
#>                                                           <chr>
#>  1                                      Neural Networks And AVO
#>  2                          Deconvolution Using Neural Networks
#>  3                     Neural Network Stacking Velocity Picking
#>  4       Seismic Velocity Picking using Hopfield Neural Network
#>  5            AVO Inversion By Artificial Neural Networks (ANN)
#>  6     Conductive fracture identification using neural networks
#>  7 Reservoir Characterization Using Feedforward Neural Networks
#>  8          Seismic Attribute Calibration Using Neural Networks
#>  9        Neural Networks For Primary Reflection Identification
#> 10             Hydrocarbon Prediction Using Dual Neural Network
#> # ... with 990 more rows, and 5 more variables: paper_id <chr>,
#> #   source <chr>, type <chr>, year <int>, author1_data <chr>

In this other example we are requesting for “journal-paper” type of papers.

# specify document type = "journal-paper", rows = 1000

my_url <- make_search_url(query = "neural network", 
                          how = "all",
                          dc_type = "journal-paper",
                          rows = 1000)

get_papers_count(my_url)
#> [1] 306
onepetro_page_to_dataframe(my_url)
#> # A tibble: 306 x 6
#>                                                                     title_data
#>                                                                          <chr>
#>  1                   Implicit Approximation of Neural Network and Applications
#>  2                Artificial Neural Networks Identify Restimulation Candidates
#>  3                                    Drill-Bit Diagnosis With Neural Networks
#>  4 Characterize Submarine Channel Reservoirs: A Neural- Network-Based Approach
#>  5 Treating Uncertainties in Reservoir-Performance Prediction With Neural Netw
#>  6          An Artificial Neural Network Based Relative Permeability Predictor
#>  7                      Neural Network: What It Can Do for Petroleum Engineers
#>  8 Characterizing Partially Sealing Faults - An Artificial Neural Network Appr
#>  9                  Neural Network for Time-Lapse Seismic Reservoir Monitoring
#> 10                Neural Network Approach Predicts U.S. Natural Gas Production
#> # ... with 296 more rows, and 5 more variables: paper_id <chr>,
#> #   source <chr>, type <chr>, year <int>, author1_data <chr>
…
