Thousands of Papers to Dataframe • petro.One
…
get_papers_count(my_url_1)

## [1] 3028

page_1 <- read_onepetro(my_url_1)
htm_1 <- paste(outdir, "pta-01-conference.html", sep = "/")
xml2::write_html(page_1, file = htm_1)
onepetro_page_to_dataframe(htm_1)

## # A tibble: 1,000 x 6
##                                                         title_data
##                                                              <chr>
##  1                             Pressure Transient Analysis in SAGD
##  2                           Well-head Pressure Transient Analysis
##  3     Automated Pressure Transient Analysis with Smart Technology
##  4  Pressure Transient Analysis in Multilayered Faulted Reservoirs
##  5  Pressure Transient Analysis of Multifractured Horizontal Wells
##  6 Integrating Pressure Transient Analysis in Hydraulic Fracturing
##  7        How Wellbore Dynamics Affect Pressure Transient Analysis
##  8             Numerical Solutions for Pressure Transient Analysis
##  9         Software Showcase: Pressure Transient Analysis Programs
## 10                Pressure-Transient Analysis for Perforated Wells
## # ... with 990 more rows, and 5 more variables: paper_id <chr>,
## #   source <chr>, type <chr>, year <chr>, author1_data <chr>

Collect second set of 1000 rows

my_url_2 <- make_search_url(query = "pressure transient analysis", 
                          how = "all", 
                          dc_type = "conference-paper",
                          start = 1000,
                          rows  = 1000)

page_2 <- read_onepetro(my_url_2)
htm_2 <- paste(outdir, "pta-02-conference.html", sep = "/")
xml2::write_html(page_2, file = htm_2)
onepetro_page_to_dataframe(htm_2)

## # A tibble: 1,000 x 6
##                                                                     title_data
##                                                                          <chr>
##  1 Neural Network Analysis Identifies Production Enhancement Opportunities in 
##  2 Storativity Ratio, Matrix/Fracture Permeability Ratio, Fracture Partitionin
##  3 Integration Wireline Formation Testing and Well Testing Evaluation - An Exa
##  4 An Integrated Approach to Designing an Offshore Heavy Oil Well Test - North
##  5  Setting a New Milestone in Carbonate Matrix Stimulation with Coiled Tubing
##  6                             Transient Analysis in Partially Completed Wells
##  7 Performance of Plugless Toe Stages and Non-Isolated Wellbore in Multi-Stage
##  8 After-Closure Idiosyncrasies of Fracture Calibration Test Analysis in Shale
##  9 New Approach for Using Surfactants to Enhance Oil Recovery from Naturally F
## 10 New Variable Compliance Method for Estimating In-Situ Stress and Leak-Off f
## # ... with 990 more rows, and 5 more variables: paper_id <chr>,
## #   source <chr>, type <chr>, year <chr>, author1_data <chr>

Collect next set of 1000 rows

my_url_3 <- make_search_url(query = "pressure transient analysis", 
                          how = "all", 
                          dc_type = "conference-paper",
                          start = 2000,
                          rows  = 1000)

page_3 <- read_onepetro(my_url_3)
htm_3 <- paste(outdir, "pta-03-conference.html", sep = "/")
xml2::write_html(page_3, file = htm_3)
onepetro_page_to_dataframe(htm_3)

## # A tibble: 1,000 x 6
##                                                                     title_data
##                                                                          <chr>
##  1 New High Density Fracturing Fluid to Stimulate a High Pressure & High Tempe
##  2            Field Development of the Scapa Field: A Marginal North Sea Field
##  3                Production Data Analysis Type Curves for the Devonian Shales
##  4 The Peregrino Challenge: How to Keep Reliable Models While Drilling Eight W
##  5         Incremental Oil Success From Waterflood Sweep Improvement in Alaska
##  6 New Techniques in LWD Formation Pressure Testing Enable Real-Time Reservoir
##  7 New Downhole Gas Separator Enhances Coiled Tubing Jetting and Stimulation P
##  8 Integrating Pressure Transient Test Data With Seismic Attribute Analysis to
##  9 Propellant Perforation Breakdown Technique: Eastern Venezuela Field Applica
## 10 Slug Testing in Multiple Coal Seams Intersected by a Single, Vertical Fract
## # ... with 990 more rows, and 5 more variables: paper_id <chr>,
## #   source <chr>, type <chr>, year <chr>, author1_data <chr>

Collect remaining set

my_url_4 <- make_search_url(query = "pressure transient analysis", 
                          how = "all", 
                          dc_type = "conference-paper",
                          start = 3000,
                          rows  = 100)

page_4 <- read_onepetro(my_url_4)
htm_4 <- paste(outdir, "pta-04-conference.html", sep = "/")
xml2::write_html(page_4, file = htm_4)
onepetro_page_to_dataframe(htm_4)

## # A tibble: 28 x 6
##                                                                     title_data
##                                                                          <chr>
##  1 Reservoir Engineering for Unconventional Reservoirs: What Do We Have to Con
##  2                        After-Closure Analysis of Fracture Calibration Tests
##  3 Analysis of Well Tests From Naturally Fractured Reservoirs by Automated Typ
##  4 Effective Well and Reservoir Evaluation Without the Need for Well Pressure 
##  5                     Case Study: Development and Optimization of Quicksilver
##  6 Evaluating Fissured Formation Geometry from Well Test Data: a Field Example
##  7               Afterflow Measurement and Deconvolution in Well Test Analysis
##  8          Hydraulic Fracturing Makes the Difference: New Life for Old Fields
##  9                    Analysis of Injection/Falloff Data From Horizontal Wells
## 10 Innovative Use of Open-Hole Wireline Formation Pressure Testing in Waterflo
## # ... with 18 more rows, and 5 more variables: paper_id <chr>,
## #   source <chr>, type <chr>, year <chr>, author1_data <chr>

Binding tables in one dataframe

p1 <- onepetro_page_to_dataframe(htm_1)
p2 <- onepetro_page_to_dataframe(htm_2)
p3 <- onepetro_page_to_dataframe(htm_3)
p4 <- onepetro_page_to_dataframe(htm_4)

papers <- rbind(p1, p2, p3, p4)
papers

## # A tibble: 3,028 x 6
##                                                         title_data
##                                                              <chr>
##  1                             Pressure Transient Analysis in SAGD
##  2                           Well-head Pressure Transient Analysis
##  3     Automated Pressure Transient Analysis with Smart Technology
##  4  Pressure Transient Analysis in Multilayered Faulted Reservoirs
##  5  Pressure Transient Analysis of Multifractured Horizontal Wells
##  6 Integrating Pressure Transient Analysis in Hydraulic Fracturing
##  7        How Wellbore Dynamics Affect Pressure Transient Analysis
##  8             Numerical Solutions for Pressure Transient Analysis
##  9         Software Showcase: Pressure Transient Analysis Programs
## 10                Pressure-Transient Analysis for Perforated Wells
## # ... with 3,018 more rows, and 5 more variables: paper_id <chr>,
## #   source <chr>, type <chr>, year <chr>, author1_data <chr>

Find which papers have the search word in the title

pattern <- "pressure transient analysis"
rows <- grep(pattern = pattern, papers$title_data, ignore.case = TRUE)
papers[rows, ]

## # A tibble: 161 x 6
##                                                           title_data
##                                                                <chr>
##  1                               Pressure Transient Analysis in SAGD
##  2                             Well-head Pressure Transient Analysis
##  3       Automated Pressure Transient Analysis with Smart Technology
##  4    Pressure Transient Analysis in Multilayered Faulted Reservoirs
##  5    Pressure Transient Analysis of Multifractured Horizontal Wells
##  6   Integrating Pressure Transient Analysis in Hydraulic Fracturing
##  7          How Wellbore Dynamics Affect Pressure Transient Analysis
##  8               Numerical Solutions for Pressure Transient Analysis
##  9           Software Showcase: Pressure Transient Analysis Programs
## 10 Generalization of Wellbore Effects in Pressure Transient Analysis
## # ... with 151 more rows, and 5 more variables: paper_id <chr>,
## #   source <chr>, type <chr>, year <chr>, author1_data <chr>
…
