Improving the word cloud: custom stopwords • petro.One
…
library(petro.One)
library(tm)
library(tibble)

use_example(1)

p1 <- onepetro_page_to_dataframe("1000_conference.html")
p2 <- onepetro_page_to_dataframe("2000_conference.html")
p3 <- onepetro_page_to_dataframe("3000_conference.html")

nn_papers <- rbind(p1, p2, p3)
nn_papers

## # A tibble: 2,918 x 6
##                                                    title_data
##                                                         <chr>
##  1                                    Neural Networks And AVO
##  2                        Deconvolution Using Neural Networks
##  3                   Neural Network Stacking Velocity Picking
##  4           Hydrocarbon Prediction Using Dual Neural Network
##  5      Higher-Order Neural Networks in Petroleum Engineering
##  6  Multiple Attenuation With Attribute-based Neural Networks
##  7   Conductive fracture identification using neural networks
##  8           APPLYING NEURAL NETWORK IN HYDROTREATING PROCESS
##  9                 Bit Bounce Detection Using Neural Networks
## 10 Artificial Neural Networks in Drilling Troubles Prediction
## # ... with 2,908 more rows, and 5 more variables: paper_id <chr>,
## #   source <chr>, type <chr>, year <int>, author1_data <chr>
…
Remove custom stopwords from the document corpus

# this is one way to remove custom stopwords
vdocs <- tm_map(vdocs, removeWords, my_custom_stopwords)

Summary table with words frequency

tdm <- TermDocumentMatrix(vdocs)

tdm.matrix <- as.matrix(tdm)
tdm.rs <- sort(rowSums(tdm.matrix), decreasing=TRUE)
tdm.df <- data.frame(word = names(tdm.rs), freq = tdm.rs, stringsAsFactors = FALSE)
as.tibble(tdm.df)                          # prevent long printing of dataframe

## # A tibble: 5,133 x 2
##          word  freq
##  *      <chr> <dbl>
##  1     neural   520
##  2  reservoir   499
##  3       data   348
##  4    seismic   291
##  5    network   288
##  6 artificial   283
##  7   analysis   249
##  8 prediction   245
##  9   networks   227
## 10      field   218
## # ... with 5,123 more rows
…
