Text Mining of Permanent Downhole Gauges • petro.One
…
papers_by_type(my_url)      # papers by type

## # A tibble: 3 x 2
##               name value
##              <chr> <dbl>
## 1 Conference paper   464
## 2    Journal paper    76
## 3     Presentation     4

# create a dataframe of papers found
df <- read_multidoc(my_url)
df

## # A tibble: 544 x 6
##                                                                     title_data
##                                                                          <chr>
##  1                               Permanent Downhole Gauge: A Need or A Luxury?
##  2       Reservoir Management Optimization Using Permanent Downhole Gauge Data
##  3              Encouraging Experience in the Use of Permanent Downhole Gauges
##  4          Pressure Transient Analysis Of Data From Permanent Downhole Gauges
##  5                          Wavelet Filtering of Permanent Downhole Gauge Data
##  6    Comparative Analysis of Permanent Downhole Gauges and their Applications
##  7 Interpreting Pressure and Flow Rate Data from Permanent Downhole Gauges Usi
##  8 Analyzing Transient Pressure From Permanent Downhole Gauges (PDG) Using Wav
##  9 Analyzing Simultaneous Rate and Pressure Data From Permanent Downhole Gauge
## 10 Recovery Increase by Permanent Downhole Gages Data - Western Siberia Field 
## # ... with 534 more rows, and 5 more variables: paper_id <chr>,
## #   source <chr>, type <chr>, year <int>, author1_data <chr>
…
