Reducing paper results by joining keywords • petro.One
…
result_object <- join_keywords(major, minor, lesser, get_papers = TRUE)
result_object
#> $keywords
#> # A tibble: 4 x 6
#>   Var1    Var2      Var3    paper_count sf               url               
#>   <chr>   <chr>     <chr>         <dbl> <chr>            <chr>             
#> 1 water ~ machine-~ neural~          62 'water+injectio~ "https://www.onep~
#> 2 water ~ machine-~ neural~          34 'water+flooding~ "https://www.onep~
#> 3 water ~ artifici~ neural~         116 'water+injectio~ "https://www.onep~
#> 4 water ~ artifici~ neural~          53 'water+flooding~ "https://www.onep~
#> 
#> $papers
#> # A tibble: 265 x 7
#>    book_title      paper_id  dc_type  authors       year source keyword    
#>    <fct>           <fct>     <fct>    <chr>        <int> <fct>  <chr>      
#>  1 Selection and ~ SPE-7916~ confere~ Shokir, E.M~  2002 SPE    'water+flo~
#>  2 Dynamic Layere~ SPE-1900~ confere~ Li, Yuanjun~  2018 SPE    'water+flo~
#>  3 IOR Evaluation~ SPE-5930~ confere~ Surguchev, ~  2000 SPE    'water+flo~
#>  4 Artificial Int~ SPE-8945~ journal~ Weiss, Will~  2006 SPE    'water+flo~
#>  5 Artificial Int~ SPE-8945~ confere~ Weiss, Will~  2004 SPE    'water+flo~
#>  6 Application of~ SPWLA-20~ confere~ Alakeely, A~  2014 SPWLA  'water+flo~
#>  7 Application of~ SPE-1914~ confere~ Dang, Cuong~  2018 SPE    'water+flo~
#>  8 Video:        ~ SPE-1914~ present~ Dang, Cuong~  2018 SPE    'water+flo~
#>  9 A Methodologic~ SPE-2839~ confere~ Mohaghegh, ~  1994 SPE    'water+flo~
#> 10 A Neural Netwo~ SPE-1651~ confere~ Foroutan, S~  2013 SPE    'water+flo~
#> # ... with 255 more rows
…
# load previous save
load(file = paste0("wat_inj_ml_1", ".rda"))
papers <- wat_inj_ml_1$papers
papers
#> $keywords
#> # A tibble: 4 x 6
#>   Var1    Var2      Var3    paper_count sf               url               
#>   <chr>   <chr>     <chr>         <dbl> <chr>            <chr>             
#> 1 water ~ machine-~ neural~          62 'water+injectio~ "https://www.onep~
#> 2 water ~ machine-~ neural~          34 'water+flooding~ "https://www.onep~
#> 3 water ~ artifici~ neural~         116 'water+injectio~ "https://www.onep~
#> 4 water ~ artifici~ neural~          53 'water+flooding~ "https://www.onep~
#> 
#> $papers
#> # A tibble: 265 x 7
#>    book_title      paper_id  dc_type  authors       year source keyword    
#>    <fct>           <fct>     <fct>    <chr>        <int> <fct>  <chr>      
#>  1 Selection and ~ SPE-7916~ confere~ Shokir, E.M~  2002 SPE    'water+flo~
#>  2 Dynamic Layere~ SPE-1900~ confere~ Li, Yuanjun~  2018 SPE    'water+flo~
#>  3 IOR Evaluation~ SPE-5930~ confere~ Surguchev, ~  2000 SPE    'water+flo~
#>  4 Artificial Int~ SPE-8945~ journal~ Weiss, Will~  2006 SPE    'water+flo~
#>  5 Artificial Int~ SPE-8945~ confere~ Weiss, Will~  2004 SPE    'water+flo~
#>  6 Application of~ SPWLA-20~ confere~ Alakeely, A~  2014 SPWLA  'water+flo~
#>  7 Application of~ SPE-1914~ confere~ Dang, Cuong~  2018 SPE    'water+flo~
#>  8 Video:        ~ SPE-1914~ present~ Dang, Cuong~  2018 SPE    'water+flo~
#>  9 A Methodologic~ SPE-2839~ confere~ Mohaghegh, ~  1994 SPE    'water+flo~
#> 10 A Neural Netwo~ SPE-1651~ confere~ Foroutan, S~  2013 SPE    'water+flo~
#> # ... with 255 more rows
…
paper_results_9 <- run_papers_search(m, n, p, q,
                                   get_papers = TRUE,       # return with papers
                                   verbose = FALSE,         # show progress
                                   len_keywords = 4,        # naming the data file
                                   allow_duplicates = FALSE) # by paper title and id
#> 
#> NULL

paper_results_9$papers
#> # A tibble: 286 x 7
#>    book_title       paper_id  dc_type authors       year source keyword    
#>    <fct>            <fct>     <fct>   <chr>        <int> <fct>  <chr>      
#>  1 Application Of ~ SPE-7788~ confer~ Zheng, Jian~  2002 SPE    'water+flo~
#>  2 Adopting Simple~ SPE-1405~ confer~ Al-Mudhafer~  2011 SPE    'water+flo~
#>  3 Proactive Optim~ SPE-1789~ journa~ Haghighat S~  2016 SPE    'water+flo~
#>  4 Application of ~ SPE-1499~ confer~ Al-Mudhafer~  2012 SPE    'water+flo~
#>  5 Prediction of T~ SPE-1900~ confer~ Ibrahim, H.~  2018 SPE    'water+flo~
#>  6 Field-Scale Pro~ SPE-1908~ confer~ Ilamah, Osh~  2018 SPE    'water+flo~
#>  7 Efficient Well ~ SPE-1122~ confer~ Sarma, Pall~  2008 SPE    'water+flo~
#>  8 Novel Applicati~ SPE-1862~ confer~ Prakasa, Bo~  2017 SPE    'water+flo~
#>  9 An Optimization~ SPE-1636~ confer~ Yan, Xia, U~  2013 SPE    'water+flo~
#> 10 Real-Time Optim~ SPE-1734~ confer~ Temizel, Ce~  2015 SPE    'water+flo~
#> # ... with 276 more rows
…
