Improving the word cloud: custom stopwords • petro.One
…
library(petro.One)
library(tm)
library(tibble)

use_example(1)

p1 <- onepetro_page_to_dataframe("neural_network-s0000r1000.html")
p2 <- onepetro_page_to_dataframe("neural_network-s1000r1000.html")
p3 <- onepetro_page_to_dataframe("neural_network-s2000r1000.html")
p4 <- onepetro_page_to_dataframe("neural_network-s3000r1000.html")

nn_papers <- rbind(p1, p2, p3, p4)
nn_papers

## # A tibble: 3,788 x 6
##    book_title          paper_id   dc_type   authors             year source
##    <fct>               <fct>      <fct>     <chr>              <int> <fct> 
##  1 Neural Networks An~ SEG-2002-~ conferen~ Russell, Brian, H~  2002 SEG   
##  2 Deconvolution Usin~ SEG-1996-~ conferen~ Essenreiter, Robe~  1996 SEG   
##  3 Neural Network Sta~ SEG-1992-~ conferen~ Schmidt, Jumndyr,~  1992 SEG   
##  4 Hydrocarbon Predic~ SEG-2000-~ conferen~ Xiangjun, Zhang, ~  2000 SEG   
##  5 Higher-Order Neura~ SPE-27905~ conferen~ Kumoluyi, A.O., I~  1994 SPE   
##  6 Implicit Approxima~ SPE-11430~ journal-~ Li, Dao-lun, Univ~  2009 SPE   
##  7 Multiple Attenuati~ SEG-2000-~ conferen~ Karrenbach, M., U~  2000 SEG   
##  8 Conductive fractur~ ARMA-95-0~ conferen~ Thomas, Andrew L.~  1995 ARMA  
##  9 Neural networks ap~ SEG-2017-~ conferen~ Canning, Anat, Pa~  2017 SEG   
## 10 Artificial Neural ~ SPE-17127~ conferen~ Lind, Yuliya B., ~  2014 SPE   
## # ... with 3,778 more rows
…
Summary table with words frequency

tdm <- TermDocumentMatrix(vdocs)

tdm.matrix <- as.matrix(tdm)
tdm.rs <- sort(rowSums(tdm.matrix), decreasing=TRUE)
tdm.df <- data.frame(word = names(tdm.rs), freq = tdm.rs, stringsAsFactors = FALSE)
as.tibble(tdm.df)                          # prevent long printing of dataframe

## Warning: `as.tibble()` is deprecated, use `as_tibble()` (but mind the new semantics).
## This warning is displayed once per session.

## # A tibble: 5,823 x 2
##    word        freq
##    <chr>      <dbl>
##  1 neural       642
##  2 reservoir    564
##  3 data         473
##  4 artificial   368
##  5 seismic      363
##  6 network      356
##  7 analysis     325
##  8 prediction   321
##  9 networks     295
## 10 oil          283
## # ... with 5,813 more rows
…
